\relax 
\providecommand\hyper@newdestlabel[2]{}
\catcode `"\active 
\providecommand\HyperFirstAtBeginDocument{\AtBeginDocument}
\HyperFirstAtBeginDocument{\ifx\hyper@anchor\@undefined
\global\let\oldcontentsline\contentsline
\gdef\contentsline#1#2#3#4{\oldcontentsline{#1}{#2}{#3}}
\global\let\oldnewlabel\newlabel
\gdef\newlabel#1#2{\newlabelxx{#1}#2}
\gdef\newlabelxx#1#2#3#4#5#6{\oldnewlabel{#1}{{#2}{#3}}}
\AtEndDocument{\ifx\hyper@anchor\@undefined
\let\contentsline\oldcontentsline
\let\newlabel\oldnewlabel
\fi}
\fi}
\global\let\hyper@last\relax 
\gdef\HyperFirstAtBeginDocument#1{#1}
\providecommand\HyField@AuxAddToFields[1]{}
\providecommand\HyField@AuxAddToCoFields[2]{}
\bibstyle{lnig}
\abx@aux@refcontext{anyt/global//global/global}
\@writefile{toc}{\boolfalse {citerequest}\boolfalse {citetracker}\boolfalse {pagetracker}\boolfalse {backtracker}\relax }
\@writefile{lof}{\boolfalse {citerequest}\boolfalse {citetracker}\boolfalse {pagetracker}\boolfalse {backtracker}\relax }
\@writefile{lot}{\boolfalse {citerequest}\boolfalse {citetracker}\boolfalse {pagetracker}\boolfalse {backtracker}\relax }
\babel@aux{ngerman}{}
\@writefile{toc}{\defcounter {refsection}{0}\relax }\@writefile{toc}{\contentsline {section}{\numberline {1}Einleitung}{1}{section.1}}
\@writefile{toc}{\defcounter {refsection}{0}\relax }\@writefile{toc}{\contentsline {section}{\numberline {2}Informatik an Schulen}{1}{section.2}}
\newlabel{sec:InfAnSchulen}{{2}{1}{Informatik an Schulen}{section.2}{}}
\newlabel{sec:InfAnSchulen@cref}{{[section][2][]2}{[1][1][]1}}
\@writefile{toc}{\defcounter {refsection}{0}\relax }\@writefile{toc}{\contentsline {subsection}{\numberline {2.1}Durchf\IeC {\"u}hrende Schulen und Stufen}{2}{subsection.2.1}}
\newlabel{subsec:durchf\IeC {\"u}hrendeSchulen}{{2.1}{2}{Durchführende Schulen und Stufen}{subsection.2.1}{}}
\newlabel{subsec:durchf\IeC {\"u}hrendeSchulen@cref}{{[subsection][1][2]2.1}{[1][1][]2}}
\@writefile{toc}{\defcounter {refsection}{0}\relax }\@writefile{toc}{\contentsline {subsection}{\numberline {2.2}Art und Weise der Durchf\IeC {\"u}hrung}{2}{subsection.2.2}}
\newlabel{subsec:durchf\IeC {\"u}hrung}{{2.2}{2}{Art und Weise der Durchführung}{subsection.2.2}{}}
\newlabel{subsec:durchf\IeC {\"u}hrung@cref}{{[subsection][2][2]2.2}{[1][2][]2}}
\@writefile{toc}{\defcounter {refsection}{0}\relax }\@writefile{toc}{\contentsline {subsubsection}{\numberline {2.2.1}Sekundarstufe 1}{2}{subsubsection.2.2.1}}
\newlabel{subsubsec:sekundarstufe1}{{2.2.1}{2}{Sekundarstufe 1}{subsubsection.2.2.1}{}}
\newlabel{subsubsec:sekundarstufe1@cref}{{[subsubsection][1][2,2]2.2.1}{[1][2][]2}}
\newlabel{Inhaltsbereiche}{{2.2.1}{2}{Inhaltsbereiche}{section*.1}{}}
\newlabel{Inhaltsbereiche@cref}{{[subsubsection][1][2,2]2.2.1}{[1][2][]2}}
\@writefile{toc}{\defcounter {refsection}{0}\relax }\@writefile{toc}{\contentsline {paragraph}{Inhaltsbereiche}{2}{section*.1}}
\abx@aux@cite{Niegemann.2004}
\abx@aux@segm{0}{0}{Niegemann.2004}
\abx@aux@cite{LOGO!Jugendmanagement.2018}
\abx@aux@segm{0}{0}{LOGO!Jugendmanagement.2018}
\abx@aux@segm{0}{0}{LOGO!Jugendmanagement.2018}
\@writefile{toc}{\defcounter {refsection}{0}\relax }\@writefile{toc}{\contentsline {section}{\numberline {3}Anforderungskatalog f\IeC {\"u}r Plattformen im Informatikunterricht}{4}{section.3}}
\newlabel{sec:anforderungskatalog}{{3}{4}{Anforderungskatalog für Plattformen im Informatikunterricht}{section.3}{}}
\newlabel{sec:anforderungskatalog@cref}{{[section][3][]3}{[1][4][]4}}
\@writefile{toc}{\defcounter {refsection}{0}\relax }\@writefile{toc}{\contentsline {section}{\numberline {4}Plattformen}{4}{section.4}}
\newlabel{sec:plattformen}{{4}{4}{Plattformen}{section.4}{}}
\newlabel{sec:plattformen@cref}{{[section][4][]4}{[1][4][]4}}
\@writefile{toc}{\defcounter {refsection}{0}\relax }\@writefile{toc}{\contentsline {subsection}{\numberline {4.1}Existierende Plattformen}{4}{subsection.4.1}}
\newlabel{subsec:existierendePlattformen}{{4.1}{4}{Existierende Plattformen}{subsection.4.1}{}}
\newlabel{subsec:existierendePlattformen@cref}{{[subsection][1][4]4.1}{[1][4][]4}}
\abx@aux@cite{Edukatico.}
\abx@aux@segm{0}{0}{Edukatico.}
\abx@aux@cite{BundeszentralefurpolitischeBildung.}
\abx@aux@segm{0}{0}{BundeszentralefurpolitischeBildung.}
\abx@aux@cite{JenniferSiebert.}
\abx@aux@segm{0}{0}{JenniferSiebert.}
\@writefile{lot}{\defcounter {refsection}{0}\relax }\@writefile{lot}{\contentsline {table}{\numberline {1}{\ignorespaces Online Lernplattformen mit Informatikinhalt nach \cite {LOGO!Jugendmanagement.2018}\relax }}{5}{table.caption.2}}
\providecommand*\caption@xref[2]{\@setref\relax\@undefined{#1}}
\newlabel{table:platforms}{{1}{5}{Online Lernplattformen mit Informatikinhalt nach \cite {LOGO!Jugendmanagement.2018}\relax }{table.caption.2}{}}
\newlabel{table:platforms@cref}{{[table][1][]1}{[1][4][]5}}
\@writefile{toc}{\defcounter {refsection}{0}\relax }\@writefile{toc}{\contentsline {subsection}{\numberline {4.2}Bildungsserver}{5}{subsection.4.2}}
\newlabel{subsec:bildungsserver}{{4.2}{5}{Bildungsserver}{subsection.4.2}{}}
\newlabel{subsec:bildungsserver@cref}{{[subsection][2][4]4.2}{[1][5][]5}}
\@writefile{toc}{\defcounter {refsection}{0}\relax }\@writefile{toc}{\contentsline {section}{\numberline {5}Art der Plattform}{5}{section.5}}
\newlabel{sec:artDerPlattform}{{5}{5}{Art der Plattform}{section.5}{}}
\newlabel{sec:artDerPlattform@cref}{{[section][5][]5}{[1][5][]5}}
\@writefile{toc}{\defcounter {refsection}{0}\relax }\@writefile{toc}{\contentsline {subsection}{\numberline {5.1}MOOC}{5}{subsection.5.1}}
\newlabel{subsec:MOOC}{{5.1}{5}{MOOC}{subsection.5.1}{}}
\newlabel{subsec:MOOC@cref}{{[subsection][1][5]5.1}{[1][5][]5}}
\abx@aux@cite{WillOremus.18.09.2013}
\abx@aux@segm{0}{0}{WillOremus.18.09.2013}
\abx@aux@segm{0}{0}{WillOremus.18.09.2013}
\@writefile{toc}{\defcounter {refsection}{0}\relax }\@writefile{toc}{\contentsline {subsection}{\numberline {5.2}SPOC}{6}{subsection.5.2}}
\newlabel{subsec:SPOC}{{5.2}{6}{SPOC}{subsection.5.2}{}}
\newlabel{subsec:SPOC@cref}{{[subsection][2][5]5.2}{[1][6][]6}}
\abx@aux@cite{eLeDia.2018}
\abx@aux@segm{0}{0}{eLeDia.2018}
\abx@aux@segm{0}{0}{eLeDia.2018}
\abx@aux@cite{StefanSchmid.29.02.2016}
\abx@aux@segm{0}{0}{StefanSchmid.29.02.2016}
\abx@aux@cite{moodle.28.08.2018}
\abx@aux@segm{0}{0}{moodle.28.08.2018}
\abx@aux@segm{0}{0}{StefanSchmid.29.02.2016}
\abx@aux@segm{0}{0}{StefanSchmid.29.02.2016}
\abx@aux@segm{0}{0}{StefanSchmid.29.02.2016}
\@writefile{toc}{\defcounter {refsection}{0}\relax }\@writefile{toc}{\contentsline {section}{\numberline {6}Moodle}{7}{section.6}}
\newlabel{subsec:moodle}{{6}{7}{Moodle}{section.6}{}}
\newlabel{subsec:moodle@cref}{{[section][6][]6}{[1][7][]7}}
\@writefile{toc}{\defcounter {refsection}{0}\relax }\@writefile{toc}{\contentsline {subsection}{\numberline {6.1}Voraussetzungen}{7}{subsection.6.1}}
\newlabel{subsubsec:VoraussetzungenMoodle}{{6.1}{7}{Voraussetzungen}{subsection.6.1}{}}
\newlabel{subsubsec:VoraussetzungenMoodle@cref}{{[subsection][1][6]6.1}{[1][7][]7}}
\@writefile{toc}{\defcounter {refsection}{0}\relax }\@writefile{toc}{\contentsline {subsection}{\numberline {6.2}Verwendungsm\IeC {\"o}glichkeiten}{7}{subsection.6.2}}
\newlabel{subsubsec:verwendungsm\IeC {\"o}glichkeiten}{{6.2}{7}{Verwendungsmöglichkeiten}{subsection.6.2}{}}
\newlabel{subsubsec:verwendungsm\IeC {\"o}glichkeiten@cref}{{[subsection][2][6]6.2}{[1][7][]7}}
\abx@aux@segm{0}{0}{StefanSchmid.29.02.2016}
\abx@aux@cite{moodle.}
\abx@aux@segm{0}{0}{moodle.}
\newlabel{fig:LernumgebungMoodle}{{\caption@xref {fig:LernumgebungMoodle}{ on input line 217}}{8}{Verwendungsmöglichkeiten}{figure.caption.3}{}}
\newlabel{fig:LernumgebungMoodle@cref}{{[subsection][2][6]6.2}{[1][7][]8}}
\@writefile{lof}{\defcounter {refsection}{0}\relax }\@writefile{lof}{\contentsline {figure}{\numberline {1}{\ignorespaces Lernumgebung in Moodel angelehnt an \cite {StefanSchmid.29.02.2016}\relax }}{8}{figure.caption.3}}
\@writefile{toc}{\defcounter {refsection}{0}\relax }\@writefile{toc}{\contentsline {subsection}{\numberline {6.3}Aufbau}{8}{subsection.6.3}}
\newlabel{subsubsec:AufbauMoodle}{{6.3}{8}{Aufbau}{subsection.6.3}{}}
\newlabel{subsubsec:AufbauMoodle@cref}{{[subsection][3][6]6.3}{[1][8][]8}}
\abx@aux@cite{UdacityInc..}
\abx@aux@segm{0}{0}{UdacityInc..}
\@writefile{toc}{\defcounter {refsection}{0}\relax }\@writefile{toc}{\contentsline {section}{\numberline {7}Udacity}{9}{section.7}}
\newlabel{subsec:udacity}{{7}{9}{Udacity}{section.7}{}}
\newlabel{subsec:udacity@cref}{{[section][7][]7}{[1][9][]9}}
\@writefile{toc}{\defcounter {refsection}{0}\relax }\@writefile{toc}{\contentsline {section}{\numberline {8}ILIAS}{9}{section.8}}
\newlabel{subsec:ilias}{{8}{9}{ILIAS}{section.8}{}}
\newlabel{subsec:ilias@cref}{{[section][8][]8}{[1][9][]9}}
\abx@aux@cite{ClaudeOstyn.}
\abx@aux@segm{0}{0}{ClaudeOstyn.}
\abx@aux@cite{IMSGlobalLearningConsortium.}
\abx@aux@segm{0}{0}{IMSGlobalLearningConsortium.}
\abx@aux@cite{ILIASopensourceeLearninge.V..2018}
\abx@aux@segm{0}{0}{ILIASopensourceeLearninge.V..2018}
\@writefile{toc}{\defcounter {refsection}{0}\relax }\@writefile{toc}{\contentsline {subsection}{\numberline {8.1}Eigenschaften}{10}{subsection.8.1}}
\newlabel{subsubsec:eigenschaftenIlias}{{8.1}{10}{Eigenschaften}{subsection.8.1}{}}
\newlabel{subsubsec:eigenschaftenIlias@cref}{{[subsection][1][8]8.1}{[1][10][]10}}
\@writefile{toc}{\defcounter {refsection}{0}\relax }\@writefile{toc}{\contentsline {subsection}{\numberline {8.2}ILIAS f\IeC {\"u}r Schulen}{10}{subsection.8.2}}
\newlabel{subsubsec:iliasF\IeC {\"u}rSchulen}{{8.2}{10}{ILIAS für Schulen}{subsection.8.2}{}}
\newlabel{subsubsec:iliasF\IeC {\"u}rSchulen@cref}{{[subsection][2][8]8.2}{[1][10][]10}}
\@writefile{toc}{\defcounter {refsection}{0}\relax }\@writefile{toc}{\contentsline {paragraph}{Kurs-Management}{10}{section*.4}}
\@writefile{toc}{\defcounter {refsection}{0}\relax }\@writefile{toc}{\contentsline {paragraph}{Kommunikationswerkzeuge}{10}{section*.5}}
\@writefile{toc}{\defcounter {refsection}{0}\relax }\@writefile{toc}{\contentsline {paragraph}{Schneller Dateiaustausch}{11}{section*.6}}
\@writefile{toc}{\defcounter {refsection}{0}\relax }\@writefile{toc}{\contentsline {paragraph}{\IeC {\"U}bungen}{11}{section*.7}}
\@writefile{toc}{\defcounter {refsection}{0}\relax }\@writefile{toc}{\contentsline {subsection}{\numberline {8.3}Voraussetzungen}{11}{subsection.8.3}}
\newlabel{subsubsec:voraussetzungenIlias}{{8.3}{11}{Voraussetzungen}{subsection.8.3}{}}
\newlabel{subsubsec:voraussetzungenIlias@cref}{{[subsection][3][8]8.3}{[1][11][]11}}
\@writefile{toc}{\defcounter {refsection}{0}\relax }\@writefile{toc}{\contentsline {section}{\numberline {9}Plattformen im Kontext des Bildungsplans}{11}{section.9}}
\newlabel{section:Matrix}{{9}{11}{Plattformen im Kontext des Bildungsplans}{section.9}{}}
\newlabel{section:Matrix@cref}{{[section][9][]9}{[1][11][]11}}
\newlabel{fig:Matrix}{{\caption@xref {fig:Matrix}{ on input line 281}}{11}{Plattformen im Kontext des Bildungsplans}{figure.caption.8}{}}
\newlabel{fig:Matrix@cref}{{[section][9][]9}{[1][11][]11}}
\@writefile{lof}{\defcounter {refsection}{0}\relax }\@writefile{lof}{\contentsline {figure}{\numberline {2}{\ignorespaces Matrix Beispielplattformen im Kontext der Bildungsstandards\relax }}{11}{figure.caption.8}}
\@writefile{toc}{\defcounter {refsection}{0}\relax }\@writefile{toc}{\contentsline {section}{\numberline {10}Fazit und Ausblick}{12}{section.10}}
\abx@aux@refcontextdefaultsdone
\abx@aux@defaultrefcontext{0}{BundeszentralefurpolitischeBildung.}{anyt/global//global/global}
\abx@aux@defaultrefcontext{0}{ClaudeOstyn.}{anyt/global//global/global}
\abx@aux@defaultrefcontext{0}{Edukatico.}{anyt/global//global/global}
\abx@aux@defaultrefcontext{0}{eLeDia.2018}{anyt/global//global/global}
\abx@aux@defaultrefcontext{0}{ILIASopensourceeLearninge.V..2018}{anyt/global//global/global}
\abx@aux@defaultrefcontext{0}{IMSGlobalLearningConsortium.}{anyt/global//global/global}
\abx@aux@defaultrefcontext{0}{JenniferSiebert.}{anyt/global//global/global}
\abx@aux@defaultrefcontext{0}{LOGO!Jugendmanagement.2018}{anyt/global//global/global}
\abx@aux@defaultrefcontext{0}{moodle.}{anyt/global//global/global}
\abx@aux@defaultrefcontext{0}{moodle.28.08.2018}{anyt/global//global/global}
\abx@aux@defaultrefcontext{0}{Niegemann.2004}{anyt/global//global/global}
\abx@aux@defaultrefcontext{0}{StefanSchmid.29.02.2016}{anyt/global//global/global}
\abx@aux@defaultrefcontext{0}{UdacityInc..}{anyt/global//global/global}
\abx@aux@defaultrefcontext{0}{WillOremus.18.09.2013}{anyt/global//global/global}
